%YAML 1.1
%TAG !u! tag:unity3d.com,2011:
--- !u!78 &1
TagManager:
  serializedVersion: 2
  tags:
  - Wall
  - Enemy
  - Scythe
  - Waypoint
  - Solid
  - PlayerSpawn
  - PauseMenu
  - OptionsImage
  layers:
  - Default
  - TransparentFX
  - Ignore Raycast
  - 
  - Water
  - UI
  - Solid
  - Enemies
  - Player
  - Scythe
  - PauseUI
  - 
  - 
  - 
  - 
  - 
  - 
  - 
  - 
  - 
  - 
  - 
  - 
  - 
  - 
  - 
  - 
  - 
  - 
  - 
  - 
  - 
  m_SortingLayers:
  - name: Default
    uniqueID: 0
    locked: 0
  - name: Background
    uniqueID: 1336085869
    locked: 0
  - name: Fondations
    uniqueID: 426961351
    locked: 0
  - name: Mobs
    uniqueID: 3458954713
    locked: 0
  - name: Player
    uniqueID: 2988170547
    locked: 0
  - name: Scythe
    uniqueID: 2910547655
    locked: 0
  - name: Item
    uniqueID: 2733817355
    locked: 0
  - name: Gem
    uniqueID: 3311786641
    locked: 0
  - name: PauseUI
    uniqueID: 163957981
    locked: 0
